{
  "response": {
    "status": "ok",
    "userTier": "developer",
    "total": 2222963,
    "startIndex": 1,
    "pageSize": 10,
    "currentPage": 1,
    "pages": 222297,
    "orderBy": "newest",
    "results": [
      {
        "id": "sport/live/2020/oct/06/nba-finals-game-4-los-angeles-lakers-v-miami-heat-live",
        "type": "liveblog",
        "sectionId": "sport",
        "sectionName": "Sport",
        "webPublicationDate": "2020-10-07T03:08:49Z",
        "webTitle": "NBA finals Game 4: Los Angeles Lakers v Miami Heat – live!",
        "webUrl": "https://www.theguardian.com/sport/live/2020/oct/06/nba-finals-game-4-los-angeles-lakers-v-miami-heat-live",
        "apiUrl": "https://content.guardianapis.com/sport/live/2020/oct/06/nba-finals-game-4-los-angeles-lakers-v-miami-heat-live",
        "isHosted": false,
        "pillarId": "pillar/sport",
        "pillarName": "Sport"
      },
      {
        "id": "sport/live/2020/oct/07/australia-v-new-zealand-third-womens-one-day-international-live",
        "type": "liveblog",
        "sectionId": "sport",
        "sectionName": "Sport",
        "webPublicationDate": "2020-10-07T03:08:00Z",
        "webTitle": "Australia v New Zealand: third women's one-day international – live!",
        "webUrl": "https://www.theguardian.com/sport/live/2020/oct/07/australia-v-new-zealand-third-womens-one-day-international-live",
        "apiUrl": "https://content.guardianapis.com/sport/live/2020/oct/07/australia-v-new-zealand-third-womens-one-day-international-live",
        "isHosted": false,
        "pillarId": "pillar/sport",
        "pillarName": "Sport"
      },
      {
        "id": "australia-news/live/2020/oct/07/australian-budget-live-news-coalition-business-coronavirus-tax-frydenberg-morrison-politics-live",
        "type": "liveblog",
        "sectionId": "australia-news",
        "sectionName": "Australia news",
        "webPublicationDate": "2020-10-07T03:05:09Z",
        "webTitle": "Federal budget 2020 reaction: Coalition punts on business for Covid recovery as NSW grapples with three mystery cases – question time live",
        "webUrl": "https://www.theguardian.com/australia-news/live/2020/oct/07/australian-budget-live-news-coalition-business-coronavirus-tax-frydenberg-morrison-politics-live",
        "apiUrl": "https://content.guardianapis.com/australia-news/live/2020/oct/07/australian-budget-live-news-coalition-business-coronavirus-tax-frydenberg-morrison-politics-live",
        "isHosted": false,
        "pillarId": "pillar/news",
        "pillarName": "News"
      },
      {
        "id": "world/live/2020/oct/07/coronavirus-live-news-six-us-states-see-record-hospital-patients-facebook-deletes-trump-post",
        "type": "liveblog",
        "sectionId": "world",
        "sectionName": "World news",
        "webPublicationDate": "2020-10-07T03:02:52Z",
        "webTitle": "Coronavirus live news: Trump aide Stephen Miller tests positive as White House outbreak spreads",
        "webUrl": "https://www.theguardian.com/world/live/2020/oct/07/coronavirus-live-news-six-us-states-see-record-hospital-patients-facebook-deletes-trump-post",
        "apiUrl": "https://content.guardianapis.com/world/live/2020/oct/07/coronavirus-live-news-six-us-states-see-record-hospital-patients-facebook-deletes-trump-post",
        "isHosted": false,
        "pillarId": "pillar/news",
        "pillarName": "News"
      },
      {
        "id": "australia-news/2020/oct/07/hundreds-of-victorians-self-isolating-after-two-covid-cases-linked-to-kilmore-cafe",
        "type": "article",
        "sectionId": "australia-news",
        "sectionName": "Australia news",
        "webPublicationDate": "2020-10-07T01:43:48Z",
        "webTitle": "Hundreds of Victorians self-isolating after two Covid cases linked to Kilmore cafe",
        "webUrl": "https://www.theguardian.com/australia-news/2020/oct/07/hundreds-of-victorians-self-isolating-after-two-covid-cases-linked-to-kilmore-cafe",
        "apiUrl": "https://content.guardianapis.com/australia-news/2020/oct/07/hundreds-of-victorians-self-isolating-after-two-covid-cases-linked-to-kilmore-cafe",
        "isHosted": false,
        "pillarId": "pillar/news",
        "pillarName": "News"
      },
      {
        "id": "us-news/live/2020/oct/06/donald-trump-coronavirus-covid-19-masks-joe-biden-election-white-house-live-updates",
        "type": "liveblog",
        "sectionId": "us-news",
        "sectionName": "US news",
        "webPublicationDate": "2020-10-07T01:12:07Z",
        "webTitle": "Next debate should be cancelled if president still sick, says Biden – as it happened",
        "webUrl": "https://www.theguardian.com/us-news/live/2020/oct/06/donald-trump-coronavirus-covid-19-masks-joe-biden-election-white-house-live-updates",
        "apiUrl": "https://content.guardianapis.com/us-news/live/2020/oct/06/donald-trump-coronavirus-covid-19-masks-joe-biden-election-white-house-live-updates",
        "isHosted": false,
        "pillarId": "pillar/news",
        "pillarName": "News"
      },
      {
        "id": "us-news/2020/oct/06/joe-biden-gettysburg-speech-unity",
        "type": "article",
        "sectionId": "us-news",
        "sectionName": "US news",
        "webPublicationDate": "2020-10-07T01:10:42Z",
        "webTitle": "'Again we are a house divided': Joe Biden calls for unity in Gettysburg speech",
        "webUrl": "https://www.theguardian.com/us-news/2020/oct/06/joe-biden-gettysburg-speech-unity",
        "apiUrl": "https://content.guardianapis.com/us-news/2020/oct/06/joe-biden-gettysburg-speech-unity",
        "isHosted": false,
        "pillarId": "pillar/news",
        "pillarName": "News"
      },
      {
        "id": "australia-news/2020/oct/07/bhp-suspends-membership-of-queensland-resources-council-over-vote-greens-last-campaign",
        "type": "article",
        "sectionId": "australia-news",
        "sectionName": "Australia news",
        "webPublicationDate": "2020-10-07T01:07:35Z",
        "webTitle": "BHP suspends membership of Queensland Resources Council over 'vote Greens last' campaign",
        "webUrl": "https://www.theguardian.com/australia-news/2020/oct/07/bhp-suspends-membership-of-queensland-resources-council-over-vote-greens-last-campaign",
        "apiUrl": "https://content.guardianapis.com/australia-news/2020/oct/07/bhp-suspends-membership-of-queensland-resources-council-over-vote-greens-last-campaign",
        "isHosted": false,
        "pillarId": "pillar/news",
        "pillarName": "News"
      },
      {
        "id": "business/2020/oct/07/covid-19-crisis-boosts-the-fortunes-of-worlds-billionaires",
        "type": "article",
        "sectionId": "business",
        "sectionName": "Business",
        "webPublicationDate": "2020-10-07T01:01:24Z",
        "webTitle": "Billionaires' wealth rises to $10.2 trillion amid Covid crisis",
        "webUrl": "https://www.theguardian.com/business/2020/oct/07/covid-19-crisis-boosts-the-fortunes-of-worlds-billionaires",
        "apiUrl": "https://content.guardianapis.com/business/2020/oct/07/covid-19-crisis-boosts-the-fortunes-of-worlds-billionaires",
        "isHosted": false,
        "pillarId": "pillar/news",
        "pillarName": "News"
      },
      {
        "id": "us-news/2020/oct/06/stephen-miller-covid-19-diagnosis",
        "type": "article",
        "sectionId": "us-news",
        "sectionName": "US news",
        "webPublicationDate": "2020-10-07T01:01:15Z",
        "webTitle": "Top Trump adviser Stephen Miller tests positive for coronavirus",
        "webUrl": "https://www.theguardian.com/us-news/2020/oct/06/stephen-miller-covid-19-diagnosis",
        "apiUrl": "https://content.guardianapis.com/us-news/2020/oct/06/stephen-miller-covid-19-diagnosis",
        "isHosted": false,
        "pillarId": "pillar/news",
        "pillarName": "News"
      }
    ]
  },
  "statusCode": 200
}
